<?xml version="1.0" encoding="UTF-8" standalone="no"?>
<!-- Created with Inkscape (http://www.inkscape.org/) -->

<svg
   width="512"
   height="512"
   viewBox="0 0 135.46666 135.46667"
   version="1.1"
   id="svg831"
   inkscape:version="1.1-rc (1:1.1+rc+202105232054+f4db50c7c1)"
   sodipodi:docname="sharp-icon.svg"
   inkscape:export-filename="/home/xeriab/Projects/TypeScript/VSCodeCustomRegionFolding/docs/icon.png"
   inkscape:export-xdpi="96"
   inkscape:export-ydpi="96"
   xmlns:inkscape="http://www.inkscape.org/namespaces/inkscape"
   xmlns:sodipodi="http://sodipodi.sourceforge.net/DTD/sodipodi-0.dtd"
   xmlns="http://www.w3.org/2000/svg"
   xmlns:svg="http://www.w3.org/2000/svg"
   xmlns:rdf="http://www.w3.org/1999/02/22-rdf-syntax-ns#"
   xmlns:cc="http://creativecommons.org/ns#"
   xmlns:dc="http://purl.org/dc/elements/1.1/">
  <defs
     id="defs825" />
  <sodipodi:namedview
     id="base"
     pagecolor="#ffffff"
     bordercolor="#646464"
     borderopacity="0.19607843"
     inkscape:pageopacity="0"
     inkscape:pageshadow="2"
     inkscape:zoom="0.35"
     inkscape:cx="-515.71429"
     inkscape:cy="487.14286"
     inkscape:document-units="px"
     inkscape:current-layer="layer1"
     showgrid="true"
     units="px"
     inkscape:showpageshadow="false"
     guidecolor="#ff00ff"
     guideopacity="0.19607843"
     inkscape:window-width="1366"
     inkscape:window-height="704"
     inkscape:window-x="0"
     inkscape:window-y="27"
     inkscape:window-maximized="1"
     inkscape:pagecheckerboard="false">
    <sodipodi:guide
       position="0,0"
       orientation="0,793.70081"
       id="guide1379"
       inkscape:locked="false" />
    <sodipodi:guide
       position="135.46666,0"
       orientation="1,0"
       id="guide1381"
       inkscape:locked="false"
       inkscape:label=""
       inkscape:color="rgb(255,0,255)" />
    <sodipodi:guide
       position="135.46666,135.46666"
       orientation="0,1"
       id="guide1383"
       inkscape:locked="false"
       inkscape:label=""
       inkscape:color="rgb(255,0,255)" />
    <sodipodi:guide
       position="0,135.46666"
       orientation="1,0"
       id="guide1385"
       inkscape:locked="false"
       inkscape:label=""
       inkscape:color="rgb(255,0,255)" />
    <inkscape:grid
       type="xygrid"
       id="grid1387"
       color="#3f3fff"
       opacity="0.07843137"
       empcolor="#3f3fff"
       empopacity="0.05882353" />
  </sodipodi:namedview>
  <metadata
     id="metadata828">
    <rdf:RDF>
      <cc:Work
         rdf:about="">
        <dc:format>image/svg+xml</dc:format>
        <dc:type
           rdf:resource="http://purl.org/dc/dcmitype/StillImage" />
        <dc:title />
      </cc:Work>
    </rdf:RDF>
  </metadata>
  <g
     inkscape:label="Layer 1"
     inkscape:groupmode="layer"
     id="layer1"
     transform="translate(0,-161.53331)">
    <text
       xml:space="preserve"
       style="font-size:146.991px;line-height:1.25;letter-spacing:0px;word-spacing:0px;opacity:0.8;vector-effect:none;fill:#c8c8c8;fill-opacity:1;stroke:none;stroke-width:99.9639;stroke-linecap:round;stroke-linejoin:round;stroke-miterlimit:4;stroke-dasharray:none;stroke-dashoffset:0;stroke-opacity:1;paint-order:stroke fill markers"
       x="23.63611"
       y="282.18332"
       id="text837"><tspan
         sodipodi:role="line"
         id="tspan835"
         x="23.63611"
         y="282.18332"
         style="font-style:normal;font-variant:normal;font-weight:normal;font-stretch:normal;font-family:'JetBrainsMono Nerd Font';-inkscape-font-specification:'JetBrainsMono Nerd Font';fill:#c8c8c8;fill-opacity:1;stroke-width:99.9639">#</tspan></text>
  </g>
</svg>
