{
	"bat": {
		"foldStartRegex": "^\\s*(::\\s*|REM\\s+)#region(?<name>.*)",
		"foldEndRegex": "^\\s*(::\\s*|REM\\s+)#endregion"
	},
	"coffeescript": {
		"foldStartRegex": "^\\s*#region\\b(?<name>.*)",
		"foldEndRegex": "^\\s*#endregion\\b"
	},
	"c": {
		"foldStartRegex": "^\\s*#pragma\\s+region\\b(?<name>.*)",
		"foldEndRegex": "^\\s*#pragma\\s+endregion\\b"
	},
	"cpp": {
		"foldStartRegex": "^\\s*#pragma\\s+region\\b(?<name>.*)",
		"foldEndRegex": "^\\s*#pragma\\s+endregion\\b"
	},
	"csharp": {
		"foldStartRegex": "^\\s*#region\\b(?<name>.*)",
		"foldEndRegex": "^\\s*#endregion\\b"
	},
	"css": {
		"foldStartRegex": "^\\s*\\/\\*\\s*#region\\b(?<name>.*)\\s*\\*\\/",
		"foldEndRegex": "^\\s*\\/\\*\\s*#endregion\\b.*\\*\\/"
	},
	"fsharp": {
		"foldStartRegex": "^\\s*//\\s*#region\\b(?<name>.*)|^\\s*\\(\\*\\s*#region(?<nameAlt>.*)\\*\\)",
		"foldEndRegex": "^\\s*//\\s*#endregion\\b|^\\s*\\(\\*\\s*#endregion\\s*\\*\\)"
	},
	"go": {
		"foldStartRegex": "^\\s*//\\s*#?region\\b(?<name>.*)",
		"foldEndRegex": "^\\s*//\\s*#?endregion\\b"
	},
	"html": {
		"foldStartRegex": "^\\s*<!--\\s*#region\\b(?<name>.*)-->",
		"foldEndRegex": "^\\s*<!--\\s*#endregion\\b.*-->"
	},
	"java": {
		"foldStartRegex": "^\\s*//\\s*#?region\\b(?<name>.*)",
		"foldEndRegex": "^\\s*//\\s*#?endregion\\b"
	},
	"javascript": {
		"foldStartRegex": "^\\s*//\\s*#?region\\b(?<name>.*)",
		"foldEndRegex": "^\\s*//\\s*#?endregion\\b"
	},
	"json": {
		"foldStartRegex": "^\\s*//\\s*#?region\\b(?<name>.*)",
		"foldEndRegex": "^\\s*//\\s*#?endregion\\b"
	},
	"jsonc": {
		"foldStartRegex": "^\\s*//\\s*[#|\\/\\/]?region\\b(?<name>.*)",
		"foldEndRegex": "^\\s*//\\s*[#|\\/\\/]?endregion\\b"
	},
	"typescript": {
		"foldStartRegex": "^\\s*//\\s*#?region\\b(?<name>.*)",
		"foldEndRegex": "^\\s*//\\s*#?endregion\\b"
	},
	"less": {
		"foldStartRegex": "^\\s*\\/\\*\\s*#region\\b(?<name>.*)\\s*\\*\\/",
		"foldEndRegex": "^\\s*\\/\\*\\s*#endregion\\b.*\\*\\/"
	},
	"markdown": {
		"foldStartRegex": "^\\s*<!--\\s*#?region\\b(?<name>.*)-->",
		"foldEndRegex": "^\\s*<!--\\s*#?endregion\\b.*-->"
	},
	"php": {
		"foldStartRegex": "^\\s*(#|\\/\\/)region\\b(?<name>.*)|^\\/\\/\\s*(#|\/\/)region\\b(?<name>.*)",
		"foldEndRegex": "^\\s*(#|\\/\\/)endregion\\b|^\\/\\/\\s*(#|\/\/)endregion\\b"
	},
	"perl": {
		"foldStartRegex": "^\\s*#region\\b(?<name>.*)",
		"foldEndRegex": "^\\s*#endregion\\b"
	},
	"powershell": {
		"foldStartRegex": "^\\s*#[rR]egion\\b(?<name>.*)",
		"foldEndRegex": "^\\s*#[eE]nd[rR]egion\\b"
	},
	"python": {
		"foldStartRegex": "^\\s*#\\s*region\\b(?<name>.*)",
		"foldEndRegex": "^\\s*#\\s*endregion\\b"
	},
	"lua": {
		"foldStartRegex": "^\\s*--\\s*#?region\\b(?<name>.*)",
		"foldEndRegex": "^\\s*--\\s*#?endregion\\b"
	},
	"rust": {
		"foldStartRegex": "^\\s*//\\s*#?region\\b(?<name>.*)",
		"foldEndRegex": "^\\s*//\\s*#?endregion\\b"
	},
	"scss": {
		"foldStartRegex": "^\\s*\\/\\*\\s*#region\\b(?<name>.*)\\s*\\*\\/",
		"foldEndRegex": "^\\s*\\/\\*\\s*#endregion\\b.*\\*\\/"
	},
	"shellscript": {
		"foldStartRegex": "^\\s*#\\s*#?region\\b(?<name>.*)",
		"foldEndRegex": "^\\s*#\\s*#?endregion\\b.*"
	},
	"bash": {
		"foldStartRegex": "^\\s*#\\s*#?region\\b(?<name>.*)",
		"foldEndRegex": "^\\s*#\\s*#?endregion\\b.*"
	},
	"fish": {
		"foldStartRegex": "^\\s*#\\s*#?region\\b(?<name>.*)",
		"foldEndRegex": "^\\s*#\\s*#?endregion\\b.*"
	},
	"zsh": {
		"foldStartRegex": "^\\s*#\\s*#?region\\b(?<name>.*)",
		"foldEndRegex": "^\\s*#\\s*#?endregion\\b.*"
	},
	"dotenv": {
		"foldStartRegex": "^\\s*#\\s*#?region\\b(?<name>.*)",
		"foldEndRegex": "^\\s*#\\s*#?endregion\\b.*"
	},
	"properties": {
		"foldStartRegex": "^\\s*#\\s*#?region\\b(?<name>.*)",
		"foldEndRegex": "^\\s*#\\s*#?endregion\\b.*"
	},
	"gitignore": {
		"foldStartRegex": "^\\s*#\\s*#?region\\b(?<name>.*)",
		"foldEndRegex": "^\\s*#\\s*#?endregion\\b.*"
	},
	"vb": {
		"foldStartRegex": "^\\s*#Region\\b\\s*\"(?<name>.*)\"",
		"foldEndRegex": "^\\s*#End Region\\b"
	},
	"xml": {
		"foldStartRegex": "^\\s*<!--\\s*#region\\b(?<name>.*)-->",
		"foldEndRegex": "^\\s*<!--\\s*#endregion\\b.*-->"
	},
	"yaml": {
		"foldStartRegex": "^\\s*#\\s*region\\b(?<name>.*)",
		"foldEndRegex": "^\\s*#\\s*endregion\\b"
	}
}